B.Sc. Psychologie Statisik I | Psychologische Methodenlehre | PHB
…
Z-Werte / Z-Standardisierung

spielen in vielen weiteren Berechnungen eine sehr große Rolle

Alle einzelnen Werte werden auf 0 zentriert und so skaliert, dass sie
eine Standardabweichung von 1 haben:

\[z_{i} = \frac{x_{i} -
\overline{x}}{s}\]

data.short %>% select(wind) %>%
  mutate(wind.z = (wind - mean(wind))/sd(wind))

## # A tibble: 3,038 × 2
##     wind  wind.z
##    <int>   <dbl>
##  1    30 -0.988 
##  2    30 -0.988 
##  3    40 -0.576 
##  4    40 -0.576 
##  5    55  0.0403
##  6    55  0.0403
##  7    55  0.0403
##  8    45 -0.371 
##  9    35 -0.782 
## 10    40 -0.576 
## # … with 3,028 more rows
…
geben an, wieviel Prozent einer Häufigkeitsverteilung den gleichen
oder einen niedrigeren Wert in einem Merkmal haben

mindestens intervallskaliert

basiert auf Z-Werten

data.short %>% select(wind) %>%
  mutate(
    wind.z = (wind - mean(wind))/sd(wind),
    wind.pr = pnorm(wind.z)
  )

## # A tibble: 3,038 × 3
##     wind  wind.z wind.pr
##    <int>   <dbl>   <dbl>
##  1    30 -0.988    0.162
##  2    30 -0.988    0.162
##  3    40 -0.576    0.282
##  4    40 -0.576    0.282
##  5    55  0.0403   0.516
##  6    55  0.0403   0.516
##  7    55  0.0403   0.516
##  8    45 -0.371    0.355
##  9    35 -0.782    0.217
## 10    40 -0.576    0.282
## # … with 3,028 more rows
…
